{
  "id": "93aa8922-e415-4d8c-ab92-295bc9a9702d",
  "prevId": "832ccdeb-ea89-45ea-b430-bb12842d73bc",
  "version": "5",
  "dialect": "pg",
  "tables": {
    "activities": {
      "name": "activities",
      "schema": "",
      "columns": {
        "id": {
          "name": "id",
          "type": "uuid",
          "primaryKey": true,
          "notNull": true
        },
        "name": {
          "name": "name",
          "type": "text",
          "primaryKey": false,
          "notNull": true
        },
        "codes": {
          "name": "codes",
          "type": "codes",
          "primaryKey": false,
          "notNull": true
        },
        "activityGroup": {
          "name": "activityGroup",
          "type": "activityGroup",
          "primaryKey": false,
          "notNull": true
        },
        "location_important": {
          "name": "location_important",
          "type": "boolean",
          "primaryKey": false,
          "notNull": true
        },
        "delivery_method_important": {
          "name": "delivery_method_important",
          "type": "boolean",
          "primaryKey": false,
          "notNull": true
        },
        "created_at": {
          "name": "created_at",
          "type": "timestamp",
          "primaryKey": false,
          "notNull": true,
          "default": "now()"
        },
        "updated_at": {
          "name": "updated_at",
          "type": "timestamp",
          "primaryKey": false,
          "notNull": true,
          "default": "now()"
        }
      },
      "indexes": {},
      "foreignKeys": {},
      "compositePrimaryKeys": {},
      "uniqueConstraints": {}
    },
    "activities_to_departments": {
      "name": "activities_to_departments",
      "schema": "",
      "columns": {
        "activity_id": {
          "name": "activity_id",
          "type": "uuid",
          "primaryKey": false,
          "notNull": true
        },
        "department_id": {
          "name": "department_id",
          "type": "uuid",
          "primaryKey": false,
          "notNull": true
        },
        "created_at": {
          "name": "created_at",
          "type": "timestamp",
          "primaryKey": false,
          "notNull": true,
          "default": "now()"
        },
        "updated_at": {
          "name": "updated_at",
          "type": "timestamp",
          "primaryKey": false,
          "notNull": true,
          "default": "now()"
        }
      },
      "indexes": {},
      "foreignKeys": {
        "activities_to_departments_activity_id_activities_id_fk": {
          "name": "activities_to_departments_activity_id_activities_id_fk",
          "tableFrom": "activities_to_departments",
          "tableTo": "activities",
          "columnsFrom": ["activity_id"],
          "columnsTo": ["id"],
          "onDelete": "no action",
          "onUpdate": "no action"
        },
        "activities_to_departments_department_id_departments_id_fk": {
          "name": "activities_to_departments_department_id_departments_id_fk",
          "tableFrom": "activities_to_departments",
          "tableTo": "departments",
          "columnsFrom": ["department_id"],
          "columnsTo": ["id"],
          "onDelete": "no action",
          "onUpdate": "no action"
        }
      },
      "compositePrimaryKeys": {
        "activities_to_departments_activity_id_department_id_pk": {
          "name": "activities_to_departments_activity_id_department_id_pk",
          "columns": ["activity_id", "department_id"]
        }
      },
      "uniqueConstraints": {}
    },
    "activities_to_quantities": {
      "name": "activities_to_quantities",
      "schema": "",
      "columns": {
        "activity_id": {
          "name": "activity_id",
          "type": "uuid",
          "primaryKey": false,
          "notNull": true
        },
        "quantity_id": {
          "name": "quantity_id",
          "type": "uuid",
          "primaryKey": false,
          "notNull": true
        },
        "created_at": {
          "name": "created_at",
          "type": "timestamp",
          "primaryKey": false,
          "notNull": true,
          "default": "now()"
        },
        "updated_at": {
          "name": "updated_at",
          "type": "timestamp",
          "primaryKey": false,
          "notNull": true,
          "default": "now()"
        }
      },
      "indexes": {},
      "foreignKeys": {
        "activities_to_quantities_activity_id_activities_id_fk": {
          "name": "activities_to_quantities_activity_id_activities_id_fk",
          "tableFrom": "activities_to_quantities",
          "tableTo": "activities",
          "columnsFrom": ["activity_id"],
          "columnsTo": ["id"],
          "onDelete": "no action",
          "onUpdate": "no action"
        },
        "activities_to_quantities_quantity_id_quantities_id_fk": {
          "name": "activities_to_quantities_quantity_id_quantities_id_fk",
          "tableFrom": "activities_to_quantities",
          "tableTo": "quantities",
          "columnsFrom": ["quantity_id"],
          "columnsTo": ["id"],
          "onDelete": "no action",
          "onUpdate": "no action"
        }
      },
      "compositePrimaryKeys": {
        "activities_to_quantities_activity_id_quantity_id_pk": {
          "name": "activities_to_quantities_activity_id_quantity_id_pk",
          "columns": ["activity_id", "quantity_id"]
        }
      },
      "uniqueConstraints": {}
    },
    "activity_records": {
      "name": "activity_records",
      "schema": "",
      "columns": {
        "id": {
          "name": "id",
          "type": "uuid",
          "primaryKey": true,
          "notNull": true
        },
        "reporting_user_id": {
          "name": "reporting_user_id",
          "type": "uuid",
          "primaryKey": false,
          "notNull": true
        },
        "date_performed_start": {
          "name": "date_performed_start",
          "type": "timestamp with time zone",
          "primaryKey": false,
          "notNull": true
        },
        "date_performed_end": {
          "name": "date_performed_end",
          "type": "timestamp with time zone",
          "primaryKey": false,
          "notNull": true
        },
        "quantity": {
          "name": "quantity",
          "type": "integer",
          "primaryKey": false,
          "notNull": true
        },
        "description": {
          "name": "description",
          "type": "text",
          "primaryKey": false,
          "notNull": true
        },
        "quarter": {
          "name": "quarter",
          "type": "text",
          "primaryKey": false,
          "notNull": true
        },
        "unit_id": {
          "name": "unit_id",
          "type": "uuid",
          "primaryKey": false,
          "notNull": true
        },
        "department_id": {
          "name": "department_id",
          "type": "uuid",
          "primaryKey": false,
          "notNull": true
        },
        "location": {
          "name": "location",
          "type": "location",
          "primaryKey": false,
          "notNull": true
        },
        "delivery_method": {
          "name": "delivery_method",
          "type": "delivery_method",
          "primaryKey": false,
          "notNull": true
        },
        "activity_id": {
          "name": "activity_id",
          "type": "uuid",
          "primaryKey": false,
          "notNull": true
        },
        "created_at": {
          "name": "created_at",
          "type": "timestamp",
          "primaryKey": false,
          "notNull": true,
          "default": "now()"
        },
        "updated_at": {
          "name": "updated_at",
          "type": "timestamp",
          "primaryKey": false,
          "notNull": true,
          "default": "now()"
        }
      },
      "indexes": {},
      "foreignKeys": {
        "activity_records_reporting_user_id_users_id_fk": {
          "name": "activity_records_reporting_user_id_users_id_fk",
          "tableFrom": "activity_records",
          "tableTo": "users",
          "columnsFrom": ["reporting_user_id"],
          "columnsTo": ["id"],
          "onDelete": "no action",
          "onUpdate": "no action"
        },
        "activity_records_unit_id_quantities_id_fk": {
          "name": "activity_records_unit_id_quantities_id_fk",
          "tableFrom": "activity_records",
          "tableTo": "quantities",
          "columnsFrom": ["unit_id"],
          "columnsTo": ["id"],
          "onDelete": "no action",
          "onUpdate": "no action"
        },
        "activity_records_department_id_departments_id_fk": {
          "name": "activity_records_department_id_departments_id_fk",
          "tableFrom": "activity_records",
          "tableTo": "departments",
          "columnsFrom": ["department_id"],
          "columnsTo": ["id"],
          "onDelete": "no action",
          "onUpdate": "no action"
        }
      },
      "compositePrimaryKeys": {},
      "uniqueConstraints": {}
    },
    "departments": {
      "name": "departments",
      "schema": "",
      "columns": {
        "id": {
          "name": "id",
          "type": "uuid",
          "primaryKey": true,
          "notNull": true
        },
        "department": {
          "name": "department",
          "type": "department",
          "primaryKey": false,
          "notNull": true
        },
        "created_at": {
          "name": "created_at",
          "type": "timestamp",
          "primaryKey": false,
          "notNull": true,
          "default": "now()"
        },
        "updated_at": {
          "name": "updated_at",
          "type": "timestamp",
          "primaryKey": false,
          "notNull": true,
          "default": "now()"
        }
      },
      "indexes": {},
      "foreignKeys": {},
      "compositePrimaryKeys": {},
      "uniqueConstraints": {}
    },
    "quantities": {
      "name": "quantities",
      "schema": "",
      "columns": {
        "id": {
          "name": "id",
          "type": "uuid",
          "primaryKey": true,
          "notNull": true
        },
        "unit": {
          "name": "unit",
          "type": "text",
          "primaryKey": false,
          "notNull": true
        },
        "created_at": {
          "name": "created_at",
          "type": "timestamp",
          "primaryKey": false,
          "notNull": true,
          "default": "now()"
        },
        "updated_at": {
          "name": "updated_at",
          "type": "timestamp",
          "primaryKey": false,
          "notNull": true,
          "default": "now()"
        }
      },
      "indexes": {},
      "foreignKeys": {},
      "compositePrimaryKeys": {},
      "uniqueConstraints": {}
    },
    "tags": {
      "name": "tags",
      "schema": "",
      "columns": {
        "id": {
          "name": "id",
          "type": "uuid",
          "primaryKey": true,
          "notNull": true
        },
        "tag": {
          "name": "tag",
          "type": "text",
          "primaryKey": false,
          "notNull": true
        },
        "created_at": {
          "name": "created_at",
          "type": "timestamp",
          "primaryKey": false,
          "notNull": true,
          "default": "now()"
        },
        "updated_at": {
          "name": "updated_at",
          "type": "timestamp",
          "primaryKey": false,
          "notNull": true,
          "default": "now()"
        }
      },
      "indexes": {},
      "foreignKeys": {},
      "compositePrimaryKeys": {},
      "uniqueConstraints": {}
    },
    "tags_to_activity_records": {
      "name": "tags_to_activity_records",
      "schema": "",
      "columns": {
        "tag_id": {
          "name": "tag_id",
          "type": "uuid",
          "primaryKey": false,
          "notNull": true
        },
        "activity_record_id": {
          "name": "activity_record_id",
          "type": "uuid",
          "primaryKey": false,
          "notNull": true
        },
        "created_at": {
          "name": "created_at",
          "type": "timestamp",
          "primaryKey": false,
          "notNull": true,
          "default": "now()"
        },
        "updated_at": {
          "name": "updated_at",
          "type": "timestamp",
          "primaryKey": false,
          "notNull": true,
          "default": "now()"
        }
      },
      "indexes": {},
      "foreignKeys": {
        "tags_to_activity_records_tag_id_tags_id_fk": {
          "name": "tags_to_activity_records_tag_id_tags_id_fk",
          "tableFrom": "tags_to_activity_records",
          "tableTo": "tags",
          "columnsFrom": ["tag_id"],
          "columnsTo": ["id"],
          "onDelete": "cascade",
          "onUpdate": "cascade"
        },
        "tags_to_activity_records_activity_record_id_activity_records_id_fk": {
          "name": "tags_to_activity_records_activity_record_id_activity_records_id_fk",
          "tableFrom": "tags_to_activity_records",
          "tableTo": "activity_records",
          "columnsFrom": ["activity_record_id"],
          "columnsTo": ["id"],
          "onDelete": "cascade",
          "onUpdate": "cascade"
        }
      },
      "compositePrimaryKeys": {
        "tags_to_activity_records_tag_id_activity_record_id_pk": {
          "name": "tags_to_activity_records_tag_id_activity_record_id_pk",
          "columns": ["tag_id", "activity_record_id"]
        }
      },
      "uniqueConstraints": {}
    },
    "other_parties_to_activity_records": {
      "name": "other_parties_to_activity_records",
      "schema": "",
      "columns": {
        "other_party_id": {
          "name": "other_party_id",
          "type": "uuid",
          "primaryKey": false,
          "notNull": true
        },
        "activity_record_id": {
          "name": "activity_record_id",
          "type": "uuid",
          "primaryKey": false,
          "notNull": true
        },
        "created_at": {
          "name": "created_at",
          "type": "timestamp",
          "primaryKey": false,
          "notNull": true,
          "default": "now()"
        },
        "updated_at": {
          "name": "updated_at",
          "type": "timestamp",
          "primaryKey": false,
          "notNull": true,
          "default": "now()"
        }
      },
      "indexes": {},
      "foreignKeys": {
        "other_parties_to_activity_records_other_party_id_users_id_fk": {
          "name": "other_parties_to_activity_records_other_party_id_users_id_fk",
          "tableFrom": "other_parties_to_activity_records",
          "tableTo": "users",
          "columnsFrom": ["other_party_id"],
          "columnsTo": ["id"],
          "onDelete": "cascade",
          "onUpdate": "cascade"
        },
        "other_parties_to_activity_records_activity_record_id_activity_records_id_fk": {
          "name": "other_parties_to_activity_records_activity_record_id_activity_records_id_fk",
          "tableFrom": "other_parties_to_activity_records",
          "tableTo": "activity_records",
          "columnsFrom": ["activity_record_id"],
          "columnsTo": ["id"],
          "onDelete": "cascade",
          "onUpdate": "cascade"
        }
      },
      "compositePrimaryKeys": {
        "other_parties_to_activity_records_other_party_id_activity_record_id_pk": {
          "name": "other_parties_to_activity_records_other_party_id_activity_record_id_pk",
          "columns": ["other_party_id", "activity_record_id"]
        }
      },
      "uniqueConstraints": {}
    },
    "users": {
      "name": "users",
      "schema": "",
      "columns": {
        "id": {
          "name": "id",
          "type": "uuid",
          "primaryKey": true,
          "notNull": true
        },
        "role": {
          "name": "role",
          "type": "role",
          "primaryKey": false,
          "notNull": true,
          "default": "'user'"
        },
        "first_name": {
          "name": "first_name",
          "type": "text",
          "primaryKey": false,
          "notNull": false
        },
        "last_name": {
          "name": "last_name",
          "type": "text",
          "primaryKey": false,
          "notNull": false
        },
        "avatar_url": {
          "name": "avatar_url",
          "type": "text",
          "primaryKey": false,
          "notNull": false
        },
        "username": {
          "name": "username",
          "type": "text",
          "primaryKey": false,
          "notNull": true
        },
        "email": {
          "name": "email",
          "type": "text",
          "primaryKey": false,
          "notNull": true
        },
        "created_at": {
          "name": "created_at",
          "type": "timestamp",
          "primaryKey": false,
          "notNull": true,
          "default": "now()"
        },
        "updated_at": {
          "name": "updated_at",
          "type": "timestamp",
          "primaryKey": false,
          "notNull": true,
          "default": "now()"
        }
      },
      "indexes": {},
      "foreignKeys": {},
      "compositePrimaryKeys": {},
      "uniqueConstraints": {
        "users_username_unique": {
          "name": "users_username_unique",
          "nullsNotDistinct": false,
          "columns": ["username"]
        },
        "users_email_unique": {
          "name": "users_email_unique",
          "nullsNotDistinct": false,
          "columns": ["email"]
        }
      }
    },
    "users_to_departments": {
      "name": "users_to_departments",
      "schema": "",
      "columns": {
        "user_id": {
          "name": "user_id",
          "type": "uuid",
          "primaryKey": false,
          "notNull": true
        },
        "department_id": {
          "name": "department_id",
          "type": "uuid",
          "primaryKey": false,
          "notNull": true
        },
        "created_at": {
          "name": "created_at",
          "type": "timestamp",
          "primaryKey": false,
          "notNull": true,
          "default": "now()"
        },
        "updated_at": {
          "name": "updated_at",
          "type": "timestamp",
          "primaryKey": false,
          "notNull": true,
          "default": "now()"
        }
      },
      "indexes": {},
      "foreignKeys": {
        "users_to_departments_user_id_users_id_fk": {
          "name": "users_to_departments_user_id_users_id_fk",
          "tableFrom": "users_to_departments",
          "tableTo": "users",
          "columnsFrom": ["user_id"],
          "columnsTo": ["id"],
          "onDelete": "no action",
          "onUpdate": "no action"
        },
        "users_to_departments_department_id_departments_id_fk": {
          "name": "users_to_departments_department_id_departments_id_fk",
          "tableFrom": "users_to_departments",
          "tableTo": "departments",
          "columnsFrom": ["department_id"],
          "columnsTo": ["id"],
          "onDelete": "no action",
          "onUpdate": "no action"
        }
      },
      "compositePrimaryKeys": {
        "users_to_departments_user_id_department_id_pk": {
          "name": "users_to_departments_user_id_department_id_pk",
          "columns": ["user_id", "department_id"]
        }
      },
      "uniqueConstraints": {}
    }
  },
  "enums": {
    "delivery_method": {
      "name": "delivery_method",
      "values": {
        "virtual": "virtual",
        "in_person": "in_person",
        "not_tracked": "not_tracked"
      }
    },
    "location": {
      "name": "location",
      "values": {
        "in_state": "in_state",
        "out_of_state": "out_of_state",
        "not_tracked": "not_tracked"
      }
    },
    "role": {
      "name": "role",
      "values": {
        "user": "user",
        "admin": "admin",
        "superuser": "superuser"
      }
    }
  },
  "schemas": {},
  "_meta": {
    "columns": {},
    "schemas": {},
    "tables": {}
  }
}
